module go-whatsapp

go 1.19

require (
	filippo.io/edwards25519 v1.0.0 // indirect
	github.com/bytedance/sonic v1.8.3 // indirect
	github.com/chenzhuoyu/base64x v0.0.0-20221115062448-fe3a3abad311 // indirect
	github.com/gin-contrib/sse v0.1.0 // indirect
	github.com/gin-gonic/gin v1.9.0 // indirect
	github.com/go-playground/locales v0.14.1 // indirect
	github.com/go-playground/universal-translator v0.18.1 // indirect
	github.com/go-playground/validator/v10 v10.11.2 // indirect
	github.com/goccy/go-json v0.10.0 // indirect
	github.com/google/uuid v1.3.0 // indirect
	github.com/gorilla/websocket v1.5.0 // indirect
	github.com/jmoiron/sqlx v1.3.5 // indirect
	github.com/json-iterator/go v1.1.12 // indirect
	github.com/klauspost/cpuid/v2 v2.2.4 // indirect
	github.com/leodido/go-urn v1.2.2 // indirect
	github.com/mattn/go-isatty v0.0.17 // indirect
	github.com/mattn/go-sqlite3 v1.14.16 // indirect
	github.com/mdp/qrterminal v1.0.1 // indirect
	github.com/modern-go/concurrent v0.0.0-20180306012644-bacd9c7ef1dd // indirect
	github.com/modern-go/reflect2 v1.0.2 // indirect
	github.com/mohae/deepcopy v0.0.0-20170929034955-c48cc78d4826 // indirect
	github.com/pelletier/go-toml/v2 v2.0.7 // indirect
	github.com/richardlehane/mscfb v1.0.4 // indirect
	github.com/richardlehane/msoleps v1.0.3 // indirect
	github.com/twitchyliquid64/golang-asm v0.15.1 // indirect
	github.com/ugorji/go/codec v1.2.11 // indirect
	github.com/xuri/efp v0.0.0-20220603152613-6918739fd470 // indirect
	github.com/xuri/excelize/v2 v2.7.0 // indirect
	github.com/xuri/nfp v0.0.0-20220409054826-5e722a1d9e22 // indirect
	go.mau.fi/libsignal v0.1.0 // indirect
	go.mau.fi/whatsmeow v0.0.0-20230226124255-e5c8f3c95d78 // indirect
	go.uber.org/atomic v1.10.0 // indirect
	go.uber.org/multierr v1.10.0 // indirect
	go.uber.org/zap v1.24.0 // indirect
	golang.org/x/arch v0.3.0 // indirect
	golang.org/x/crypto v0.7.0 // indirect
	golang.org/x/net v0.8.0 // indirect
	golang.org/x/sys v0.6.0 // indirect
	golang.org/x/text v0.8.0 // indirect
	google.golang.org/protobuf v1.29.0 // indirect
	gopkg.in/yaml.v3 v3.0.1 // indirect
	rsc.io/qr v0.2.0 // indirect
)
